{
    "Wed 12-February-2020": ["C"],
    "Thu 13-February-2020": ["C", "D"],
    "Fri 14-February-2020": ["E"],
    "Sat 15-February-2020": ["C", "F"],
    "Sun 16-February-2020": ["E", "G"],
    "Mon 17-February-2020": ["A"],
    "Tue 18-February-2020": ["A", "B"],
    "Wed 19-February-2020": ["C"],
    "Thu 20-February-2020": ["C", "D"],
    "Fri 21-February-2020": ["E"],
    "Sat 22-February-2020": ["C", "F"],
    "Sun 23-February-2020": ["E", "G"],
    "Mon 24-February-2020": ["A"],
    "Tue 25-February-2020": ["A", "B"],
    "Wed 26-February-2020": ["C"],
    "Thu 27-February-2020": ["C", "D"],
    "Fri 28-February-2020": ["E"],
    "Sat 29-February-2020": ["C", "F"],
    "Sun 01-March-2020": ["E", "G"],
    "Mon 02-March-2020": ["A"],
    "Tue 03-March-2020": ["A", "B"],
    "Wed 04-March-2020": ["C"],
    "Thu 05-March-2020": ["C", "D"],
    "Fri 06-March-2020": ["E"],
    "Sat 07-March-2020": ["C", "F"],
    "Sun 08-March-2020": ["E", "G"],
    "Mon 09-March-2020": ["A"],
    "Tue 10-March-2020": ["A", "B"],
    "Wed 11-March-2020": ["C"],
    "Thu 12-March-2020": ["C", "D"],
    "Fri 13-March-2020": ["E"],
    "Sat 14-March-2020": ["C", "F"],
    "Sun 15-March-2020": ["E", "G"],
    "Mon 16-March-2020": ["A"],
    "Tue 17-March-2020": ["A", "B"],
    "Wed 18-March-2020": ["C"],
    "Thu 19-March-2020": ["C", "D"],
    "Fri 20-March-2020": ["E"],
    "Sat 21-March-2020": ["C", "F"],
    "Sun 22-March-2020": ["E", "G"],
    "Mon 23-March-2020": ["A"],
    "Tue 24-March-2020": ["A", "B"],
    "Wed 25-March-2020": ["C"],
    "Thu 26-March-2020": ["C", "D"],
    "Fri 27-March-2020": ["E"],
    "Sat 28-March-2020": ["C", "F"],
    "Sun 29-March-2020": ["E", "G"],
    "Mon 30-March-2020": ["A"],
    "Tue 31-March-2020": ["A", "B"],
    "Wed 01-April-2020": ["C"],
    "Thu 02-April-2020": ["C", "D"],
    "Fri 03-April-2020": ["E"],
    "Sat 04-April-2020": ["C", "F"],
    "Sun 05-April-2020": ["E", "G"],
    "Mon 06-April-2020": ["A"],
    "Tue 07-April-2020": ["A", "B"],
    "Wed 08-April-2020": ["C"],
    "Thu 09-April-2020": ["C", "D"],
    "Fri 10-April-2020": ["E"],
    "Sat 11-April-2020": ["C", "F"],
    "Sun 12-April-2020": ["E", "G"],
    "Mon 13-April-2020": ["A"],
    "Tue 14-April-2020": ["A", "B"],
    "Wed 15-April-2020": ["C"],
    "Thu 16-April-2020": ["C", "D"],
    "Fri 17-April-2020": ["E"],
    "Sat 18-April-2020": ["C", "F"],
    "Sun 19-April-2020": ["E", "G"],
    "Mon 20-April-2020": ["A"],
    "Tue 21-April-2020": ["A", "B"],
    "Wed 22-April-2020": ["C"],
    "Thu 23-April-2020": ["C", "D"],
    "Fri 24-April-2020": ["E"],
    "Sat 25-April-2020": ["C", "F"],
    "Sun 26-April-2020": ["E", "G"],
    "Mon 27-April-2020": ["A"],
    "Tue 28-April-2020": ["A", "B"],
    "Wed 29-April-2020": ["C"],
    "Thu 30-April-2020": ["C", "D"],
    "Fri 01-May-2020": ["E"],
    "Sat 02-May-2020": ["C", "F"],
    "Sun 03-May-2020": ["E", "G"],
    "Mon 04-May-2020": ["A"],
    "Tue 05-May-2020": ["A", "B"],
    "Wed 06-May-2020": ["C"],
    "Thu 07-May-2020": ["C", "D"],
    "Fri 08-May-2020": ["E"],
    "Sat 09-May-2020": ["C", "F"],
    "Sun 10-May-2020": ["E", "G"],
    "Mon 11-May-2020": ["A"]
}
